{
  "timeZone": "America/Bogota",
  "dependencies": {
    "libraries": [
      {
        "userSymbol": "Cheerio",
        "version": "14",
        "libraryId": "1ReeQ6WO8kKNxoaA_O0XEQ589cIrRvEBA9qcWpNqdOP17i47u6N9M5Xh0"
      }
    ]
  },
  "exceptionLogging": "STACKDRIVER",
  "oauthScopes": [
    "https://www.googleapis.com/auth/documents",
    "https://www.googleapis.com/auth/spreadsheets",
    "https://www.googleapis.com/auth/presentations",
    "https://www.googleapis.com/auth/script.external_request",
    "https://www.googleapis.com/auth/script.container.ui"
  ],
  "runtimeVersion": "V8"
}